{
  "elements": [
    {
      "smartGrossRevenueEuro": 159443.58393200254,
      "impressions": 15613461,
      "publisherGrossRevenuePublisherCurrency": 1.569,
      "dealId": "N/A",
      "internalDealId": "0",
      "dealName": "N/A"
    },
    {
      "smartGrossRevenueEuro": 2690.0299999999997,
      "impressions": 15613461,
      "publisherGrossRevenuePublisherCurrency": 2.64,
      "dealId": "156832924172",
      "internalDealId": "97873",
      "dealName": "PG - Mobile App Interstitiel ALL - Gifi - Mobsucess 0612"
    },
    {
      "smartGrossRevenueEuro": 1967.2770000000005,
      "impressions": 13444195,
      "publisherGrossRevenuePublisherCurrency": 1.538873851056272,
      "dealId": "140343652207",
      "internalDealId": "95442",
      "dealName": "PMP_ShowHeroes_PG_Amnet_DAN_MSFT_Surface_Instream_video_Dec2019_Floor19,5"
    },
    {
      "smartGrossRevenueEuro": 1632.2800000000002,
      "impressions": 10513461,
      "publisherGrossRevenuePublisherCurrency": 1.553016458445427,
      "dealId": "657576819644",
      "internalDealId": "96241",
      "dealName": "Dentsu Aegis Microsoft Surface Pro 2019 PG RON DMP66 Pre-Roll FP 26,00"
    },
    {
      "smartGrossRevenueEuro": 1218.7985,
      "impressions": 12313461,
      "publisherGrossRevenuePublisherCurrency": 1.236,
      "dealId": "761683290630",
      "internalDealId": "96236",
      "dealName": "Dentsu Aegis Microsoft Surface Pro 2019 PG RON DMP66 MRT FP 9,25"
    }
  ]
}