{
  "elements": [
    {
      "metrics": {
        "smartGrossRevenueEuro": {
          "first": 20,
          "second": 25,
          "chg": 25
        },
        "impressions": {
          "first": 20,
          "second": 5,
          "chg": -75
        },
        "publisherGrossRevenuePublisherCurrency": {
          "first": 5,
          "second": 10,
          "chg": 50
        }
      }
    }
  ]
}